Data Exploration for capstone-project-Beiwko
…
dim(tidy_data)

[1] 7451    7

tidy_data |>
  group_by(`year`) |>
  summarise(mean = mean(access_rural_pct),
            median = median(access_rural_pct),
            sd = sd(access_rural_pct))

# A tibble: 34 × 4
    year  mean median    sd
   <int> <dbl>  <dbl> <dbl>
 1  1990  95.0  100    16.0
 2  1991  89.3  100    24.9
 3  1992  84.5  100    28.8
 4  1993  80.7  100    31.3
 5  1994  78.8  100    32.8
 6  1995  77.3  100    33.6
 7  1996  75.7  100    34.6
 8  1997  76.9  100    33.3
 9  1998  75.4   99.5  33.8
10  1999  75.0   98.9  33.9
# ℹ 24 more rows
…
